<svg width="24" height="24" viewBox="0 0 24 24" fill="none" xmlns="http://www.w3.org/2000/svg">
<path fill-rule="evenodd" clip-rule="evenodd" d="M9.70711 7.29289C10.0976 7.68342 10.0976 8.31658 9.70711 8.70711L7.41421 11H19C19.5523 11 20 11.4477 20 12C20 12.5523 19.5523 13 19 13H7.41421L9.70711 15.2929C10.0976 15.6834 10.0976 16.3166 9.70711 16.7071C9.31658 17.0976 8.68342 17.0976 8.29289 16.7071L4.29316 12.7074C4.19722 12.6114 4.12459 12.5006 4.07579 12.3826C4.02743 12.2659 4.00053 12.138 4.00001 12.004L4 12L4.00001 11.9949C4.00068 11.8617 4.02738 11.7347 4.0753 11.6186C4.09935 11.5602 4.12917 11.5037 4.16475 11.4498C4.20135 11.3943 4.24404 11.3418 4.29283 11.293L8.29289 7.29289C8.68342 6.90237 9.31658 6.90237 9.70711 7.29289Z" fill="#84878D"/>
</svg>
